{
  "project_info": {
    "project_number": "938377706512",
    "project_id": "mybudget-ee6f4",
    "storage_bucket": "mybudget-ee6f4.appspot.com"
  },
  "client": [
    {
      "client_info": {
        "mobilesdk_app_id": "1:938377706512:android:50f0f244972ef607e7de95",
        "android_client_info": {
          "package_name": "io.ionic.starter"
        }
      },
      "oauth_client": [
        {
          "client_id": "938377706512-j15tqs5ps3th0mkund7gmsb1fd6svvd4.apps.googleusercontent.com",
          "client_type": 3
        }
      ],
      "api_key": [
        {
          "current_key": "AIzaSyB8qf8sMs4v_y8clr8zCuaKVwWYkDd3cVk"
        }
      ],
      "services": {
        "appinvite_service": {
          "other_platform_oauth_client": [
            {
              "client_id": "938377706512-j15tqs5ps3th0mkund7gmsb1fd6svvd4.apps.googleusercontent.com",
              "client_type": 3
            }
          ]
        }
      }
    }
  ],
  "configuration_version": "1"
}